<svg width="86" height="38" viewBox="0 0 86 38" fill="none" xmlns="http://www.w3.org/2000/svg">
<rect y="16.1914" width="85.9535" height="6.30851" fill="#EF3842"/>
<path d="M27.0384 22.3738L41.1683 36.5038C41.9494 37.2848 43.2157 37.2848 43.9967 36.5038L58.1267 22.3738C59.3866 21.1139 58.4943 18.9596 56.7125 18.9596H28.4526C26.6708 18.9596 25.7784 21.1139 27.0384 22.3738Z" fill="#EF3842"/>
</svg>
